/Users/kalyan/Documents/workspace/FileTransformer/src/main/java/com/waterlinedata/transformer/MTFT.java
/Users/kalyan/Documents/workspace/FileTransformer/src/main/java/com/waterlinedata/transformer/ATXTransformer.java
/Users/kalyan/Documents/workspace/FileTransformer/src/main/java/com/waterlinedata/transformer/FileTransformer.java
/Users/kalyan/Documents/workspace/FileTransformer/src/main/java/com/waterlinedata/util/FileUtils.java
/Users/kalyan/Documents/workspace/FileTransformer/src/main/java/com/waterlinedata/transformer/PRTransformer.java
/Users/kalyan/Documents/workspace/FileTransformer/src/main/java/com/waterlinedata/util/CacheUtil.java
/Users/kalyan/Documents/workspace/FileTransformer/src/main/java/com/waterlinedata/util/PropertiesUtil.java
/Users/kalyan/Documents/workspace/FileTransformer/src/main/java/com/waterlinedata/util/LineageUtil.java
/Users/kalyan/Documents/workspace/FileTransformer/src/main/java/com/waterlinedata/entity/Constants.java
/Users/kalyan/Documents/workspace/FileTransformer/src/main/java/com/waterlinedata/transformer/Main.java
/Users/kalyan/Documents/workspace/FileTransformer/src/main/java/com/waterlinedata/util/SchemaUtils.java
